{
  "project_info": {
    "project_number": "1022486037901",
    "firebase_url": "https://dannysanramirezapp.firebaseio.com",
    "project_id": "dannysanramirezapp",
    "storage_bucket": "dannysanramirezapp.appspot.com"
  },
  "client": [
    {
      "client_info": {
        "mobilesdk_app_id": "1:1022486037901:android:e8afe87836490b52",
        "android_client_info": {
          "package_name": "com.example.time_fighter"
        }
      },
      "oauth_client": [
        {
          "client_id": "1022486037901-c1ilmc6tcdj7va4fftn047ibfrig67m8.apps.googleusercontent.com",
          "client_type": 3
        }
      ],
      "api_key": [
        {
          "current_key": "AIzaSyBzt6gyUv1pr-6hvSYmnKoS34q_M0pzCMk"
        }
      ],
      "services": {
        "appinvite_service": {
          "other_platform_oauth_client": [
            {
              "client_id": "1022486037901-c1ilmc6tcdj7va4fftn047ibfrig67m8.apps.googleusercontent.com",
              "client_type": 3
            }
          ]
        }
      }
    }
  ],
  "configuration_version": "1"
}